Task3
…
# A tibble: 2 × 4
  admin_name avg_lat avg_lng count
  <chr>        <dbl>   <dbl> <int>
1 Tongatapu    -21.2   -175.    59
2 Vava‘u       -20.5   -175.    11

# Question 3: Cities with missing population
my_real_data %>%
  filter(is.na(population)) %>%
  select(city, admin_name, population)

# A tibble: 67 × 3
   city        admin_name population
   <chr>       <chr>           <dbl>
 1 Fo‘ui       Tongatapu          NA
 2 Ha‘asini    Tongatapu          NA
 3 Kanokupolu  Tongatapu          NA
 4 Ha‘alalo    Tongatapu          NA
 5 Veitongo    Tongatapu          NA
 6 Nukuleka    Tongatapu          NA
 7 Taliai Camp Vava‘u             NA
 8 Ha‘atafu    Tongatapu          NA
 9 Hā‘utu      Tongatapu          NA
10 Haveluliku  Vava‘u             NA
# ℹ 57 more rows

# Question 4: Distance from equator
my_real_data %>%
  mutate(distance_from_equator = abs(lat)) %>%
  select(city, lat, distance_from_equator) %>%
  arrange(distance_from_equator)

# A tibble: 70 × 3
   city           lat distance_from_equator
   <chr>        <dbl>                 <dbl>
 1 Hihifo       -16.0                  16.0
 2 Pangaimotu   -18.7                  18.7
 3 Ha‘atafu     -21.1                  21.1
 4 Neiafu       -21.1                  21.1
 5 Kanokupolu   -21.1                  21.1
 6 Ha‘akili     -21.1                  21.1
 7 Ahau         -21.1                  21.1
 8 Kolovai      -21.1                  21.1
 9 Ha‘avakatolo -21.1                  21.1
10 Fo‘ui        -21.1                  21.1
# ℹ 60 more rows
…
